{
  "name": "bw-color",
  "$schema": "../../node_modules/nx/schemas/project-schema.json",
  "sourceRoot": "modules/bw-color/src",
  "projectType": "library",
  "tags": [],
  "// targets": "to see all targets run: nx show project bw-color --web",
  "targets": {}
}
